#Command:  
C:\USERS\JAMES\APPDATA\LOCAL\MICROSOFT\WINDOWS\WER\REPORTQUEUE\NONCRITICAL_VCTIP.EXE_FA3F56286735C412927232DFAF152F7E4D865291_CAB_0DC96D25\EXCEPTIONDETAILS_9DED7572FB1D459BA780938D83AD062D.TXT
C:\USERS\JAMES\APPDATA\LOCAL\MICROSOFT\WINDOWS\WER\REPORTQUEUE\NONCRITICAL_VCTIP.EXE_FA3F56286735C412927232DFAF152F7E4D865291_CAB_0DC96D25\SESSIONID_E6D1F3CB-C846-418F-B740-66B444A92489.TXT
C:\USERS\JAMES\APPDATA\LOCAL\MICROSOFT\WINDOWS\WER\REPORTQUEUE\NONCRITICAL_VCTIP.EXE_FA3F56286735C412927232DFAF152F7E4D865291_CAB_0DC96D25\WER6C99.TMP.MDMP
C:\USERS\JAMES\APPDATA\LOCAL\MICROSOFT\WINDOWS\WER\REPORTQUEUE\NONCRITICAL_VCTIP.EXE_FA3F56286735C412927232DFAF152F7E4D865291_CAB_0DC96D25\WER6D27.TMP.WERDATACOLLECTIONFAILURE.TXT
C:\USERS\JAMES\APPDATA\LOCAL\MICROSOFT\WINDOWS\WER\REPORTQUEUE\NONCRITICAL_VCTIP.EXE_FA3F56286735C412927232DFAF152F7E4D865291_CAB_0DC96D25\REPORT.WER
