#Command:  
C:\WINDOWS\SYSTEM32\RSAENH.DLL
C:\WINDOWS\SYSTEM32\P2PCOLLAB.DLL
C:\WINDOWS\SYSTEM32\DNSAPI.DLL
C:\PROGRAM FILES (X86)\MICROSOFT VISUAL STUDIO 14.0\VC\BIN\VCTIP.EXE
C:\WINDOWS\SYSWOW64\NTDLL.DLL
C:\WINDOWS\SYSTEM32\MSCOREE.DLL
C:\WINDOWS\SYSWOW64\KERNEL32.DLL
C:\WINDOWS\SYSWOW64\KERNELBASE.DLL
C:\PROGRAM FILES (X86)\MSBUILD\14.0\BIN\FILETRACKER32.DLL
C:\WINDOWS\SYSWOW64\ADVAPI32.DLL
C:\WINDOWS\SYSWOW64\MSVCRT.DLL
C:\WINDOWS\SYSWOW64\SECHOST.DLL
C:\WINDOWS\SYSWOW64\RPCRT4.DLL
C:\WINDOWS\SYSWOW64\SSPICLI.DLL
C:\WINDOWS\SYSWOW64\CRYPTBASE.DLL
C:\WINDOWS\SYSTEM32\API-MS-WIN-CRT-STDIO-L1-1-0.DLL
C:\WINDOWS\SYSTEM32\UCRTBASE.DLL
C:\WINDOWS\SYSTEM32\API-MS-WIN-CORE-TIMEZONE-L1-1-0.DLL
C:\WINDOWS\SYSTEM32\API-MS-WIN-CORE-FILE-L2-1-0.DLL
C:\WINDOWS\SYSTEM32\API-MS-WIN-CORE-LOCALIZATION-L1-2-0.DLL
C:\WINDOWS\SYSTEM32\API-MS-WIN-CORE-SYNCH-L1-2-0.DLL
C:\WINDOWS\SYSTEM32\API-MS-WIN-CORE-PROCESSTHREADS-L1-1-1.DLL
C:\WINDOWS\SYSTEM32\API-MS-WIN-CORE-FILE-L1-2-0.DLL
C:\WINDOWS\SYSTEM32\VCRUNTIME140.DLL
C:\WINDOWS\SYSTEM32\API-MS-WIN-CRT-RUNTIME-L1-1-0.DLL
C:\WINDOWS\SYSTEM32\API-MS-WIN-CRT-STRING-L1-1-0.DLL
C:\WINDOWS\SYSTEM32\API-MS-WIN-CRT-HEAP-L1-1-0.DLL
C:\WINDOWS\SYSTEM32\API-MS-WIN-CRT-CONVERT-L1-1-0.DLL
C:\WINDOWS\SYSTEM32\API-MS-WIN-CRT-MATH-L1-1-0.DLL
C:\WINDOWS\SYSTEM32\API-MS-WIN-CRT-LOCALE-L1-1-0.DLL
C:\WINDOWS\SYSTEM32\API-MS-WIN-CRT-FILESYSTEM-L1-1-0.DLL
C:\WINDOWS\SYSWOW64\OLE32.DLL
C:\WINDOWS\SYSWOW64\GDI32.DLL
C:\WINDOWS\SYSWOW64\USER32.DLL
C:\WINDOWS\SYSWOW64\LPK.DLL
C:\WINDOWS\SYSWOW64\USP10.DLL
C:\WINDOWS\SYSWOW64\OLEAUT32.DLL
C:\WINDOWS\SYSTEM32\MSVCP140.DLL
C:\WINDOWS\SYSTEM32\API-MS-WIN-CRT-MULTIBYTE-L1-1-0.DLL
C:\WINDOWS\SYSTEM32\API-MS-WIN-CRT-TIME-L1-1-0.DLL
C:\WINDOWS\SYSTEM32\API-MS-WIN-CRT-ENVIRONMENT-L1-1-0.DLL
C:\WINDOWS\SYSTEM32\API-MS-WIN-CRT-UTILITY-L1-1-0.DLL
C:\WINDOWS\SYSWOW64\SHELL32.DLL
C:\WINDOWS\SYSWOW64\SHLWAPI.DLL
C:\WINDOWS\SYSTEM32\IMM32.DLL
C:\WINDOWS\SYSWOW64\MSCTF.DLL
C:\WINDOWS\MICROSOFT.NET\FRAMEWORK\V4.0.30319\MSCOREEI.DLL
C:\WINDOWS\SYSTEM32\VERSION.DLL
C:\WINDOWS\MICROSOFT.NET\FRAMEWORK\V4.0.30319\CLR.DLL
C:\WINDOWS\SYSTEM32\MSVCR120_CLR0400.DLL
C:\WINDOWS\ASSEMBLY\NATIVEIMAGES_V4.0.30319_32\MSCORLIB\7582400666D289C016013AD0F6E0E3E6\MSCORLIB.NI.DLL
C:\WINDOWS\MICROSOFT.NET\FRAMEWORK\V4.0.30319\CLRJIT.DLL
C:\WINDOWS\ASSEMBLY\NATIVEIMAGES_V4.0.30319_32\SYSTEM\1BE7A15B1F33BF22E4F53AAF45518C77\SYSTEM.NI.DLL
C:\WINDOWS\MICROSOFT.NET\FRAMEWORK\V4.0.30319\NLSSORTING.DLL
C:\WINDOWS\ASSEMBLY\NATIVEIMAGES_V4.0.30319_32\SYSTEM.CORE\EB4CCA4F06A15158C3F7E2C56516729B\SYSTEM.CORE.NI.DLL
C:\WINDOWS\SYSTEM32\SQMAPI.DLL
C:\WINDOWS\SYSTEM32\BCRYPT.DLL
C:\WINDOWS\SYSWOW64\PROFAPI.DLL
C:\WINDOWS\ASSEMBLY\NATIVEIMAGES_V4.0.30319_32\SYSTEM.CONFIGURATION\FE4B221B4109F0C78F57A792500699B5\SYSTEM.CONFIGURATION.NI.DLL
C:\WINDOWS\ASSEMBLY\NATIVEIMAGES_V4.0.30319_32\SYSTEM.XML\4FBDA26D781323081B45526DA6E87B35\SYSTEM.XML.NI.DLL
C:\WINDOWS\SYSTEM32\RASAPI32.DLL
C:\WINDOWS\SYSTEM32\RASMAN.DLL
C:\WINDOWS\SYSWOW64\WS2_32.DLL
C:\WINDOWS\SYSWOW64\NSI.DLL
C:\WINDOWS\SYSTEM32\RTUTILS.DLL
C:\WINDOWS\ASSEMBLY\NATIVEIMAGES_V4.0.30319_32\SYSTEM.DRAWING\1D52BD4AC5E0A6422058A5D62C9F6D9D\SYSTEM.DRAWING.NI.DLL
C:\WINDOWS\SYSTEM32\MSWSOCK.DLL
C:\WINDOWS\ASSEMBLY\NATIVEIMAGES_V4.0.30319_32\SYSTEM.WINDOWS.FORMS\FB06AD4BC55B9C3CA68A3F9259D826CD\SYSTEM.WINDOWS.FORMS.NI.DLL
C:\WINDOWS\SYSTEM32\WSHTCPIP.DLL
C:\WINDOWS\SYSTEM32\WSHIP6.DLL
C:\WINDOWS\SYSTEM32\UXTHEME.DLL
C:\WINDOWS\SYSTEM32\WINHTTP.DLL
C:\WINDOWS\SYSTEM32\WEBIO.DLL
C:\WINDOWS\WINSXS\X86_MICROSOFT.WINDOWS.GDIPLUS_6595B64144CCF1DF_1.1.7601.23545_NONE_5C06D189A00E2C29\GDIPLUS.DLL
C:\WINDOWS\SYSTEM32\CREDSSP.DLL
C:\WINDOWS\SYSTEM32\IPHLPAPI.DLL
C:\WINDOWS\SYSTEM32\WINNSI.DLL
C:\WINDOWS\SYSTEM32\DHCPCSVC6.DLL
C:\WINDOWS\SYSTEM32\DHCPCSVC.DLL
C:\WINDOWS\SYSTEM32\DNSAPI.DLL
C:\WINDOWS\SYSTEM32\WKSCLI.DLL
C:\WINDOWS\SYSTEM32\NETUTILS.DLL
C:\WINDOWS\SYSTEM32\RASADHLP.DLL
C:\WINDOWS\SYSTEM32\FWPUCLNT.DLL
C:\WINDOWS\SYSWOW64\PSAPI.DLL
C:\WINDOWS\SYSTEM32\SECUR32.DLL
C:\WINDOWS\SYSWOW64\SCHANNEL.DLL
C:\WINDOWS\SYSWOW64\CRYPT32.DLL
C:\WINDOWS\SYSWOW64\MSASN1.DLL
C:\WINDOWS\SYSTEM32\NCRYPT.DLL
C:\WINDOWS\SYSWOW64\BCRYPTPRIMITIVES.DLL
C:\WINDOWS\SYSWOW64\USERENV.DLL
C:\WINDOWS\SYSTEM32\GPAPI.DLL
C:\WINDOWS\SYSTEM32\CRYPTSP.DLL
C:\WINDOWS\SYSTEM32\RSAENH.DLL
C:\WINDOWS\ASSEMBLY\NATIVEIMAGES_V4.0.30319_32\SYSTEM.XML.LINQ\1C4A51C8B46A8F31E3E23690F749182F\SYSTEM.XML.LINQ.NI.DLL
C:\WINDOWS\MICROSOFT.NET\FRAMEWORK\V4.0.30319\DIASYMREADER.DLL
C:\WINDOWS\ASSEMBLY\NATIVEIMAGES_V4.0.30319_32\SYSTEM.NET.HTTP\5FAF546A8E018D89B1C277E0BE243E4B\SYSTEM.NET.HTTP.NI.DLL
C:\WINDOWS\MICROSOFT.NET\FRAMEWORK\V4.0.30319\CLRCOMPRESSION.DLL
C:\PROGRAM FILES (X86)\OVERWOLF\0.109.2.16\OWEXPLORER.DLL
C:\WINDOWS\SYSTEM32\WINMM.DLL
C:\WINDOWS\SYSTEM32\DBGHELP.DLL
C:\WINDOWS\SYSTEM32\RPCRTREMOTE.DLL
C:\WINDOWS\SYSTEM32\WER.DLL
C:\WINDOWS\SYSTEM32\SENSAPI.DLL
C:\WINDOWS\SYSTEM32\POWRPROF.DLL
C:\WINDOWS\SYSWOW64\SETUPAPI.DLL
C:\WINDOWS\SYSWOW64\CFGMGR32.DLL
C:\WINDOWS\SYSWOW64\DEVOBJ.DLL
C:\PROGRAM FILES (X86)\MICROSOFT VISUAL STUDIO 14.0\VC\BIN\VCTIP.EXE
C:\WINDOWS\SYSWOW64\NTDLL.DLL
C:\WINDOWS\SYSTEM32\MSCOREE.DLL
C:\WINDOWS\SYSWOW64\KERNEL32.DLL
C:\WINDOWS\SYSWOW64\KERNELBASE.DLL
C:\PROGRAM FILES (X86)\MSBUILD\14.0\BIN\FILETRACKER32.DLL
C:\WINDOWS\SYSWOW64\ADVAPI32.DLL
C:\WINDOWS\SYSWOW64\MSVCRT.DLL
C:\WINDOWS\SYSWOW64\SECHOST.DLL
C:\WINDOWS\SYSWOW64\RPCRT4.DLL
C:\WINDOWS\SYSWOW64\SSPICLI.DLL
C:\WINDOWS\SYSWOW64\CRYPTBASE.DLL
C:\WINDOWS\SYSTEM32\API-MS-WIN-CRT-STDIO-L1-1-0.DLL
C:\WINDOWS\SYSTEM32\UCRTBASE.DLL
C:\WINDOWS\SYSTEM32\API-MS-WIN-CORE-TIMEZONE-L1-1-0.DLL
C:\WINDOWS\SYSTEM32\API-MS-WIN-CORE-FILE-L2-1-0.DLL
C:\WINDOWS\SYSTEM32\API-MS-WIN-CORE-LOCALIZATION-L1-2-0.DLL
C:\WINDOWS\SYSTEM32\API-MS-WIN-CORE-SYNCH-L1-2-0.DLL
C:\WINDOWS\SYSTEM32\API-MS-WIN-CORE-PROCESSTHREADS-L1-1-1.DLL
C:\WINDOWS\SYSTEM32\API-MS-WIN-CORE-FILE-L1-2-0.DLL
C:\WINDOWS\SYSTEM32\VCRUNTIME140.DLL
C:\WINDOWS\SYSTEM32\API-MS-WIN-CRT-RUNTIME-L1-1-0.DLL
C:\WINDOWS\SYSTEM32\API-MS-WIN-CRT-STRING-L1-1-0.DLL
C:\WINDOWS\SYSTEM32\API-MS-WIN-CRT-HEAP-L1-1-0.DLL
C:\WINDOWS\SYSTEM32\API-MS-WIN-CRT-CONVERT-L1-1-0.DLL
C:\WINDOWS\SYSTEM32\API-MS-WIN-CRT-MATH-L1-1-0.DLL
C:\WINDOWS\SYSTEM32\API-MS-WIN-CRT-LOCALE-L1-1-0.DLL
C:\WINDOWS\SYSTEM32\API-MS-WIN-CRT-FILESYSTEM-L1-1-0.DLL
C:\WINDOWS\SYSWOW64\OLE32.DLL
C:\WINDOWS\SYSWOW64\GDI32.DLL
C:\WINDOWS\SYSWOW64\USER32.DLL
C:\WINDOWS\SYSWOW64\LPK.DLL
C:\WINDOWS\SYSWOW64\USP10.DLL
C:\WINDOWS\SYSWOW64\OLEAUT32.DLL
C:\WINDOWS\SYSTEM32\MSVCP140.DLL
C:\WINDOWS\SYSTEM32\API-MS-WIN-CRT-MULTIBYTE-L1-1-0.DLL
C:\WINDOWS\SYSTEM32\API-MS-WIN-CRT-TIME-L1-1-0.DLL
C:\WINDOWS\SYSTEM32\API-MS-WIN-CRT-ENVIRONMENT-L1-1-0.DLL
C:\WINDOWS\SYSTEM32\API-MS-WIN-CRT-UTILITY-L1-1-0.DLL
C:\WINDOWS\SYSWOW64\SHELL32.DLL
C:\WINDOWS\SYSWOW64\SHLWAPI.DLL
C:\WINDOWS\SYSTEM32\IMM32.DLL
C:\WINDOWS\SYSWOW64\MSCTF.DLL
C:\WINDOWS\MICROSOFT.NET\FRAMEWORK\V4.0.30319\MSCOREEI.DLL
C:\WINDOWS\SYSTEM32\VERSION.DLL
C:\WINDOWS\MICROSOFT.NET\FRAMEWORK\V4.0.30319\CLR.DLL
C:\WINDOWS\SYSTEM32\MSVCR120_CLR0400.DLL
C:\WINDOWS\ASSEMBLY\NATIVEIMAGES_V4.0.30319_32\MSCORLIB\7582400666D289C016013AD0F6E0E3E6\MSCORLIB.NI.DLL
C:\WINDOWS\MICROSOFT.NET\FRAMEWORK\V4.0.30319\CLRJIT.DLL
C:\WINDOWS\ASSEMBLY\NATIVEIMAGES_V4.0.30319_32\SYSTEM\1BE7A15B1F33BF22E4F53AAF45518C77\SYSTEM.NI.DLL
C:\WINDOWS\MICROSOFT.NET\FRAMEWORK\V4.0.30319\NLSSORTING.DLL
C:\WINDOWS\ASSEMBLY\NATIVEIMAGES_V4.0.30319_32\SYSTEM.CORE\EB4CCA4F06A15158C3F7E2C56516729B\SYSTEM.CORE.NI.DLL
C:\WINDOWS\SYSTEM32\SQMAPI.DLL
C:\WINDOWS\SYSTEM32\BCRYPT.DLL
C:\WINDOWS\SYSWOW64\PROFAPI.DLL
C:\WINDOWS\ASSEMBLY\NATIVEIMAGES_V4.0.30319_32\SYSTEM.CONFIGURATION\FE4B221B4109F0C78F57A792500699B5\SYSTEM.CONFIGURATION.NI.DLL
C:\WINDOWS\ASSEMBLY\NATIVEIMAGES_V4.0.30319_32\SYSTEM.XML\4FBDA26D781323081B45526DA6E87B35\SYSTEM.XML.NI.DLL
C:\WINDOWS\SYSTEM32\RASAPI32.DLL
C:\WINDOWS\SYSTEM32\RASMAN.DLL
C:\WINDOWS\SYSWOW64\WS2_32.DLL
C:\WINDOWS\SYSWOW64\NSI.DLL
C:\WINDOWS\SYSTEM32\RTUTILS.DLL
C:\WINDOWS\ASSEMBLY\NATIVEIMAGES_V4.0.30319_32\SYSTEM.DRAWING\1D52BD4AC5E0A6422058A5D62C9F6D9D\SYSTEM.DRAWING.NI.DLL
C:\WINDOWS\SYSTEM32\MSWSOCK.DLL
C:\WINDOWS\ASSEMBLY\NATIVEIMAGES_V4.0.30319_32\SYSTEM.WINDOWS.FORMS\FB06AD4BC55B9C3CA68A3F9259D826CD\SYSTEM.WINDOWS.FORMS.NI.DLL
C:\WINDOWS\SYSTEM32\WSHTCPIP.DLL
C:\WINDOWS\SYSTEM32\WSHIP6.DLL
C:\WINDOWS\SYSTEM32\UXTHEME.DLL
C:\WINDOWS\SYSTEM32\WINHTTP.DLL
C:\WINDOWS\SYSTEM32\WEBIO.DLL
C:\WINDOWS\WINSXS\X86_MICROSOFT.WINDOWS.GDIPLUS_6595B64144CCF1DF_1.1.7601.23545_NONE_5C06D189A00E2C29\GDIPLUS.DLL
C:\WINDOWS\SYSTEM32\CREDSSP.DLL
C:\WINDOWS\SYSTEM32\IPHLPAPI.DLL
C:\WINDOWS\SYSTEM32\WINNSI.DLL
C:\WINDOWS\SYSTEM32\DHCPCSVC6.DLL
C:\WINDOWS\SYSTEM32\DHCPCSVC.DLL
C:\WINDOWS\SYSTEM32\DNSAPI.DLL
C:\WINDOWS\SYSTEM32\WKSCLI.DLL
C:\WINDOWS\SYSTEM32\NETUTILS.DLL
C:\WINDOWS\SYSTEM32\RASADHLP.DLL
C:\WINDOWS\SYSTEM32\FWPUCLNT.DLL
C:\WINDOWS\SYSWOW64\PSAPI.DLL
C:\WINDOWS\SYSTEM32\SECUR32.DLL
C:\WINDOWS\SYSWOW64\SCHANNEL.DLL
C:\WINDOWS\SYSWOW64\CRYPT32.DLL
C:\WINDOWS\SYSWOW64\MSASN1.DLL
C:\WINDOWS\SYSTEM32\NCRYPT.DLL
C:\WINDOWS\SYSWOW64\BCRYPTPRIMITIVES.DLL
C:\WINDOWS\SYSWOW64\USERENV.DLL
C:\WINDOWS\SYSTEM32\GPAPI.DLL
C:\WINDOWS\SYSTEM32\CRYPTSP.DLL
C:\WINDOWS\SYSTEM32\RSAENH.DLL
C:\WINDOWS\ASSEMBLY\NATIVEIMAGES_V4.0.30319_32\SYSTEM.XML.LINQ\1C4A51C8B46A8F31E3E23690F749182F\SYSTEM.XML.LINQ.NI.DLL
C:\WINDOWS\MICROSOFT.NET\FRAMEWORK\V4.0.30319\DIASYMREADER.DLL
C:\WINDOWS\ASSEMBLY\NATIVEIMAGES_V4.0.30319_32\SYSTEM.NET.HTTP\5FAF546A8E018D89B1C277E0BE243E4B\SYSTEM.NET.HTTP.NI.DLL
C:\WINDOWS\MICROSOFT.NET\FRAMEWORK\V4.0.30319\CLRCOMPRESSION.DLL
C:\PROGRAM FILES (X86)\OVERWOLF\0.109.2.16\OWEXPLORER.DLL
C:\WINDOWS\SYSTEM32\WINMM.DLL
C:\WINDOWS\SYSTEM32\DBGHELP.DLL
C:\WINDOWS\SYSTEM32\RPCRTREMOTE.DLL
C:\WINDOWS\SYSTEM32\WER.DLL
C:\WINDOWS\SYSTEM32\SENSAPI.DLL
C:\WINDOWS\SYSTEM32\POWRPROF.DLL
C:\WINDOWS\SYSWOW64\SETUPAPI.DLL
C:\WINDOWS\SYSWOW64\CFGMGR32.DLL
C:\WINDOWS\SYSWOW64\DEVOBJ.DLL
C:\PROGRAM FILES (X86)\MICROSOFT VISUAL STUDIO 14.0\VC\BIN\VCTIP.EXE
C:\WINDOWS\SYSWOW64\NTDLL.DLL
C:\WINDOWS\SYSTEM32\MSCOREE.DLL
C:\WINDOWS\SYSWOW64\KERNEL32.DLL
C:\WINDOWS\SYSWOW64\KERNELBASE.DLL
C:\PROGRAM FILES (X86)\MSBUILD\14.0\BIN\FILETRACKER32.DLL
C:\WINDOWS\SYSWOW64\ADVAPI32.DLL
C:\WINDOWS\SYSWOW64\MSVCRT.DLL
C:\WINDOWS\SYSWOW64\SECHOST.DLL
C:\WINDOWS\SYSWOW64\RPCRT4.DLL
C:\WINDOWS\SYSWOW64\SSPICLI.DLL
C:\WINDOWS\SYSWOW64\CRYPTBASE.DLL
C:\WINDOWS\SYSTEM32\API-MS-WIN-CRT-STDIO-L1-1-0.DLL
C:\WINDOWS\SYSTEM32\UCRTBASE.DLL
C:\WINDOWS\SYSTEM32\API-MS-WIN-CORE-TIMEZONE-L1-1-0.DLL
C:\WINDOWS\SYSTEM32\API-MS-WIN-CORE-FILE-L2-1-0.DLL
C:\WINDOWS\SYSTEM32\API-MS-WIN-CORE-LOCALIZATION-L1-2-0.DLL
C:\WINDOWS\SYSTEM32\API-MS-WIN-CORE-SYNCH-L1-2-0.DLL
C:\WINDOWS\SYSTEM32\API-MS-WIN-CORE-PROCESSTHREADS-L1-1-1.DLL
C:\WINDOWS\SYSTEM32\API-MS-WIN-CORE-FILE-L1-2-0.DLL
C:\WINDOWS\SYSTEM32\VCRUNTIME140.DLL
C:\WINDOWS\SYSTEM32\API-MS-WIN-CRT-RUNTIME-L1-1-0.DLL
C:\WINDOWS\SYSTEM32\API-MS-WIN-CRT-STRING-L1-1-0.DLL
C:\WINDOWS\SYSTEM32\API-MS-WIN-CRT-HEAP-L1-1-0.DLL
C:\WINDOWS\SYSTEM32\API-MS-WIN-CRT-CONVERT-L1-1-0.DLL
C:\WINDOWS\SYSTEM32\API-MS-WIN-CRT-MATH-L1-1-0.DLL
C:\WINDOWS\SYSTEM32\API-MS-WIN-CRT-LOCALE-L1-1-0.DLL
C:\WINDOWS\SYSTEM32\API-MS-WIN-CRT-FILESYSTEM-L1-1-0.DLL
C:\WINDOWS\SYSWOW64\OLE32.DLL
C:\WINDOWS\SYSWOW64\GDI32.DLL
C:\WINDOWS\SYSWOW64\USER32.DLL
C:\WINDOWS\SYSWOW64\LPK.DLL
C:\WINDOWS\SYSWOW64\USP10.DLL
C:\WINDOWS\SYSWOW64\OLEAUT32.DLL
C:\WINDOWS\SYSTEM32\MSVCP140.DLL
C:\WINDOWS\SYSTEM32\API-MS-WIN-CRT-MULTIBYTE-L1-1-0.DLL
C:\WINDOWS\SYSTEM32\API-MS-WIN-CRT-TIME-L1-1-0.DLL
C:\WINDOWS\SYSTEM32\API-MS-WIN-CRT-ENVIRONMENT-L1-1-0.DLL
C:\WINDOWS\SYSTEM32\API-MS-WIN-CRT-UTILITY-L1-1-0.DLL
C:\WINDOWS\SYSWOW64\SHELL32.DLL
C:\WINDOWS\SYSWOW64\SHLWAPI.DLL
C:\WINDOWS\SYSTEM32\IMM32.DLL
C:\WINDOWS\SYSWOW64\MSCTF.DLL
C:\WINDOWS\MICROSOFT.NET\FRAMEWORK\V4.0.30319\MSCOREEI.DLL
C:\WINDOWS\SYSTEM32\VERSION.DLL
C:\WINDOWS\MICROSOFT.NET\FRAMEWORK\V4.0.30319\CLR.DLL
C:\WINDOWS\SYSTEM32\MSVCR120_CLR0400.DLL
C:\WINDOWS\ASSEMBLY\NATIVEIMAGES_V4.0.30319_32\MSCORLIB\7582400666D289C016013AD0F6E0E3E6\MSCORLIB.NI.DLL
C:\WINDOWS\MICROSOFT.NET\FRAMEWORK\V4.0.30319\CLRJIT.DLL
C:\WINDOWS\ASSEMBLY\NATIVEIMAGES_V4.0.30319_32\SYSTEM\1BE7A15B1F33BF22E4F53AAF45518C77\SYSTEM.NI.DLL
C:\WINDOWS\MICROSOFT.NET\FRAMEWORK\V4.0.30319\NLSSORTING.DLL
C:\WINDOWS\ASSEMBLY\NATIVEIMAGES_V4.0.30319_32\SYSTEM.CORE\EB4CCA4F06A15158C3F7E2C56516729B\SYSTEM.CORE.NI.DLL
C:\WINDOWS\SYSTEM32\SQMAPI.DLL
C:\WINDOWS\SYSTEM32\BCRYPT.DLL
C:\WINDOWS\SYSWOW64\PROFAPI.DLL
C:\WINDOWS\ASSEMBLY\NATIVEIMAGES_V4.0.30319_32\SYSTEM.CONFIGURATION\FE4B221B4109F0C78F57A792500699B5\SYSTEM.CONFIGURATION.NI.DLL
C:\WINDOWS\ASSEMBLY\NATIVEIMAGES_V4.0.30319_32\SYSTEM.XML\4FBDA26D781323081B45526DA6E87B35\SYSTEM.XML.NI.DLL
C:\WINDOWS\SYSTEM32\RASAPI32.DLL
C:\WINDOWS\SYSTEM32\RASMAN.DLL
C:\WINDOWS\SYSWOW64\WS2_32.DLL
C:\WINDOWS\SYSWOW64\NSI.DLL
C:\WINDOWS\SYSTEM32\RTUTILS.DLL
C:\WINDOWS\ASSEMBLY\NATIVEIMAGES_V4.0.30319_32\SYSTEM.DRAWING\1D52BD4AC5E0A6422058A5D62C9F6D9D\SYSTEM.DRAWING.NI.DLL
C:\WINDOWS\SYSTEM32\MSWSOCK.DLL
C:\WINDOWS\ASSEMBLY\NATIVEIMAGES_V4.0.30319_32\SYSTEM.WINDOWS.FORMS\FB06AD4BC55B9C3CA68A3F9259D826CD\SYSTEM.WINDOWS.FORMS.NI.DLL
C:\WINDOWS\SYSTEM32\WSHTCPIP.DLL
C:\WINDOWS\SYSTEM32\WSHIP6.DLL
C:\WINDOWS\SYSTEM32\UXTHEME.DLL
C:\WINDOWS\SYSTEM32\WINHTTP.DLL
C:\WINDOWS\SYSTEM32\WEBIO.DLL
C:\WINDOWS\WINSXS\X86_MICROSOFT.WINDOWS.GDIPLUS_6595B64144CCF1DF_1.1.7601.23545_NONE_5C06D189A00E2C29\GDIPLUS.DLL
C:\WINDOWS\SYSTEM32\CREDSSP.DLL
C:\WINDOWS\SYSTEM32\IPHLPAPI.DLL
C:\WINDOWS\SYSTEM32\WINNSI.DLL
C:\WINDOWS\SYSTEM32\DHCPCSVC6.DLL
C:\WINDOWS\SYSTEM32\DHCPCSVC.DLL
C:\WINDOWS\SYSTEM32\DNSAPI.DLL
C:\WINDOWS\SYSTEM32\WKSCLI.DLL
C:\WINDOWS\SYSTEM32\NETUTILS.DLL
C:\WINDOWS\SYSTEM32\RASADHLP.DLL
C:\WINDOWS\SYSTEM32\FWPUCLNT.DLL
C:\WINDOWS\SYSWOW64\PSAPI.DLL
C:\WINDOWS\SYSTEM32\SECUR32.DLL
C:\WINDOWS\SYSWOW64\SCHANNEL.DLL
C:\WINDOWS\SYSWOW64\CRYPT32.DLL
C:\WINDOWS\SYSWOW64\MSASN1.DLL
C:\WINDOWS\SYSTEM32\NCRYPT.DLL
C:\WINDOWS\SYSWOW64\BCRYPTPRIMITIVES.DLL
C:\WINDOWS\SYSWOW64\USERENV.DLL
C:\WINDOWS\SYSTEM32\GPAPI.DLL
C:\WINDOWS\SYSTEM32\CRYPTSP.DLL
C:\WINDOWS\SYSTEM32\RSAENH.DLL
C:\WINDOWS\ASSEMBLY\NATIVEIMAGES_V4.0.30319_32\SYSTEM.XML.LINQ\1C4A51C8B46A8F31E3E23690F749182F\SYSTEM.XML.LINQ.NI.DLL
C:\WINDOWS\MICROSOFT.NET\FRAMEWORK\V4.0.30319\DIASYMREADER.DLL
C:\WINDOWS\ASSEMBLY\NATIVEIMAGES_V4.0.30319_32\SYSTEM.NET.HTTP\5FAF546A8E018D89B1C277E0BE243E4B\SYSTEM.NET.HTTP.NI.DLL
C:\WINDOWS\MICROSOFT.NET\FRAMEWORK\V4.0.30319\CLRCOMPRESSION.DLL
C:\PROGRAM FILES (X86)\OVERWOLF\0.109.2.16\OWEXPLORER.DLL
C:\WINDOWS\SYSTEM32\WINMM.DLL
C:\WINDOWS\SYSTEM32\DBGHELP.DLL
C:\WINDOWS\SYSTEM32\RPCRTREMOTE.DLL
C:\WINDOWS\SYSTEM32\WER.DLL
C:\WINDOWS\SYSTEM32\SENSAPI.DLL
C:\WINDOWS\SYSTEM32\POWRPROF.DLL
C:\WINDOWS\SYSWOW64\SETUPAPI.DLL
C:\WINDOWS\SYSWOW64\CFGMGR32.DLL
C:\WINDOWS\SYSWOW64\DEVOBJ.DLL
C:\PROGRAM FILES (X86)\MICROSOFT VISUAL STUDIO 14.0\VC\BIN\VCTIP.EXE
C:\WINDOWS\SYSWOW64\NTDLL.DLL
C:\WINDOWS\SYSTEM32\MSCOREE.DLL
C:\WINDOWS\SYSWOW64\KERNEL32.DLL
C:\WINDOWS\SYSWOW64\KERNELBASE.DLL
C:\PROGRAM FILES (X86)\MSBUILD\14.0\BIN\FILETRACKER32.DLL
C:\WINDOWS\SYSWOW64\ADVAPI32.DLL
C:\WINDOWS\SYSWOW64\MSVCRT.DLL
C:\WINDOWS\SYSWOW64\SECHOST.DLL
C:\WINDOWS\SYSWOW64\RPCRT4.DLL
C:\WINDOWS\SYSWOW64\SSPICLI.DLL
C:\WINDOWS\SYSWOW64\CRYPTBASE.DLL
C:\WINDOWS\SYSTEM32\API-MS-WIN-CRT-STDIO-L1-1-0.DLL
C:\WINDOWS\SYSTEM32\UCRTBASE.DLL
C:\WINDOWS\SYSTEM32\API-MS-WIN-CORE-TIMEZONE-L1-1-0.DLL
C:\WINDOWS\SYSTEM32\API-MS-WIN-CORE-FILE-L2-1-0.DLL
C:\WINDOWS\SYSTEM32\API-MS-WIN-CORE-LOCALIZATION-L1-2-0.DLL
C:\WINDOWS\SYSTEM32\API-MS-WIN-CORE-SYNCH-L1-2-0.DLL
C:\WINDOWS\SYSTEM32\API-MS-WIN-CORE-PROCESSTHREADS-L1-1-1.DLL
C:\WINDOWS\SYSTEM32\API-MS-WIN-CORE-FILE-L1-2-0.DLL
C:\WINDOWS\SYSTEM32\VCRUNTIME140.DLL
C:\WINDOWS\SYSTEM32\API-MS-WIN-CRT-RUNTIME-L1-1-0.DLL
C:\WINDOWS\SYSTEM32\API-MS-WIN-CRT-STRING-L1-1-0.DLL
C:\WINDOWS\SYSTEM32\API-MS-WIN-CRT-HEAP-L1-1-0.DLL
C:\WINDOWS\SYSTEM32\API-MS-WIN-CRT-CONVERT-L1-1-0.DLL
C:\WINDOWS\SYSTEM32\API-MS-WIN-CRT-MATH-L1-1-0.DLL
C:\WINDOWS\SYSTEM32\API-MS-WIN-CRT-LOCALE-L1-1-0.DLL
C:\WINDOWS\SYSTEM32\API-MS-WIN-CRT-FILESYSTEM-L1-1-0.DLL
C:\WINDOWS\SYSWOW64\OLE32.DLL
C:\WINDOWS\SYSWOW64\GDI32.DLL
C:\WINDOWS\SYSWOW64\USER32.DLL
C:\WINDOWS\SYSWOW64\LPK.DLL
C:\WINDOWS\SYSWOW64\USP10.DLL
C:\WINDOWS\SYSWOW64\OLEAUT32.DLL
C:\WINDOWS\SYSTEM32\MSVCP140.DLL
C:\WINDOWS\SYSTEM32\API-MS-WIN-CRT-MULTIBYTE-L1-1-0.DLL
C:\WINDOWS\SYSTEM32\API-MS-WIN-CRT-TIME-L1-1-0.DLL
C:\WINDOWS\SYSTEM32\API-MS-WIN-CRT-ENVIRONMENT-L1-1-0.DLL
C:\WINDOWS\SYSTEM32\API-MS-WIN-CRT-UTILITY-L1-1-0.DLL
C:\WINDOWS\SYSWOW64\SHELL32.DLL
C:\WINDOWS\SYSWOW64\SHLWAPI.DLL
C:\WINDOWS\SYSTEM32\IMM32.DLL
C:\WINDOWS\SYSWOW64\MSCTF.DLL
C:\WINDOWS\MICROSOFT.NET\FRAMEWORK\V4.0.30319\MSCOREEI.DLL
C:\WINDOWS\SYSTEM32\VERSION.DLL
C:\WINDOWS\MICROSOFT.NET\FRAMEWORK\V4.0.30319\CLR.DLL
C:\WINDOWS\SYSTEM32\MSVCR120_CLR0400.DLL
C:\WINDOWS\ASSEMBLY\NATIVEIMAGES_V4.0.30319_32\MSCORLIB\7582400666D289C016013AD0F6E0E3E6\MSCORLIB.NI.DLL
C:\WINDOWS\MICROSOFT.NET\FRAMEWORK\V4.0.30319\CLRJIT.DLL
C:\WINDOWS\ASSEMBLY\NATIVEIMAGES_V4.0.30319_32\SYSTEM\1BE7A15B1F33BF22E4F53AAF45518C77\SYSTEM.NI.DLL
C:\WINDOWS\MICROSOFT.NET\FRAMEWORK\V4.0.30319\NLSSORTING.DLL
C:\WINDOWS\ASSEMBLY\NATIVEIMAGES_V4.0.30319_32\SYSTEM.CORE\EB4CCA4F06A15158C3F7E2C56516729B\SYSTEM.CORE.NI.DLL
C:\WINDOWS\SYSTEM32\SQMAPI.DLL
C:\WINDOWS\SYSTEM32\BCRYPT.DLL
C:\WINDOWS\SYSWOW64\PROFAPI.DLL
C:\WINDOWS\ASSEMBLY\NATIVEIMAGES_V4.0.30319_32\SYSTEM.CONFIGURATION\FE4B221B4109F0C78F57A792500699B5\SYSTEM.CONFIGURATION.NI.DLL
C:\WINDOWS\ASSEMBLY\NATIVEIMAGES_V4.0.30319_32\SYSTEM.XML\4FBDA26D781323081B45526DA6E87B35\SYSTEM.XML.NI.DLL
C:\WINDOWS\SYSTEM32\RASAPI32.DLL
C:\WINDOWS\SYSTEM32\RASMAN.DLL
C:\WINDOWS\SYSWOW64\WS2_32.DLL
C:\WINDOWS\SYSWOW64\NSI.DLL
C:\WINDOWS\SYSTEM32\RTUTILS.DLL
C:\WINDOWS\ASSEMBLY\NATIVEIMAGES_V4.0.30319_32\SYSTEM.DRAWING\1D52BD4AC5E0A6422058A5D62C9F6D9D\SYSTEM.DRAWING.NI.DLL
C:\WINDOWS\SYSTEM32\MSWSOCK.DLL
C:\WINDOWS\ASSEMBLY\NATIVEIMAGES_V4.0.30319_32\SYSTEM.WINDOWS.FORMS\FB06AD4BC55B9C3CA68A3F9259D826CD\SYSTEM.WINDOWS.FORMS.NI.DLL
C:\WINDOWS\SYSTEM32\WSHTCPIP.DLL
C:\WINDOWS\SYSTEM32\WSHIP6.DLL
C:\WINDOWS\SYSTEM32\UXTHEME.DLL
C:\WINDOWS\SYSTEM32\WINHTTP.DLL
C:\WINDOWS\SYSTEM32\WEBIO.DLL
C:\WINDOWS\WINSXS\X86_MICROSOFT.WINDOWS.GDIPLUS_6595B64144CCF1DF_1.1.7601.23545_NONE_5C06D189A00E2C29\GDIPLUS.DLL
C:\WINDOWS\SYSTEM32\CREDSSP.DLL
C:\WINDOWS\SYSTEM32\IPHLPAPI.DLL
C:\WINDOWS\SYSTEM32\WINNSI.DLL
C:\WINDOWS\SYSTEM32\DHCPCSVC6.DLL
C:\WINDOWS\SYSTEM32\DHCPCSVC.DLL
C:\WINDOWS\SYSTEM32\DNSAPI.DLL
C:\WINDOWS\SYSTEM32\WKSCLI.DLL
C:\WINDOWS\SYSTEM32\NETUTILS.DLL
C:\WINDOWS\SYSTEM32\RASADHLP.DLL
C:\WINDOWS\SYSTEM32\FWPUCLNT.DLL
C:\WINDOWS\SYSWOW64\PSAPI.DLL
C:\WINDOWS\SYSTEM32\SECUR32.DLL
C:\WINDOWS\SYSWOW64\SCHANNEL.DLL
C:\WINDOWS\SYSWOW64\CRYPT32.DLL
C:\WINDOWS\SYSWOW64\MSASN1.DLL
C:\WINDOWS\SYSTEM32\NCRYPT.DLL
C:\WINDOWS\SYSWOW64\BCRYPTPRIMITIVES.DLL
C:\WINDOWS\SYSWOW64\USERENV.DLL
C:\WINDOWS\SYSTEM32\GPAPI.DLL
C:\WINDOWS\SYSTEM32\CRYPTSP.DLL
C:\WINDOWS\SYSTEM32\RSAENH.DLL
C:\WINDOWS\ASSEMBLY\NATIVEIMAGES_V4.0.30319_32\SYSTEM.XML.LINQ\1C4A51C8B46A8F31E3E23690F749182F\SYSTEM.XML.LINQ.NI.DLL
C:\WINDOWS\MICROSOFT.NET\FRAMEWORK\V4.0.30319\DIASYMREADER.DLL
C:\WINDOWS\ASSEMBLY\NATIVEIMAGES_V4.0.30319_32\SYSTEM.NET.HTTP\5FAF546A8E018D89B1C277E0BE243E4B\SYSTEM.NET.HTTP.NI.DLL
C:\WINDOWS\MICROSOFT.NET\FRAMEWORK\V4.0.30319\CLRCOMPRESSION.DLL
C:\PROGRAM FILES (X86)\OVERWOLF\0.109.2.16\OWEXPLORER.DLL
C:\WINDOWS\SYSTEM32\WINMM.DLL
C:\WINDOWS\SYSTEM32\DBGHELP.DLL
C:\WINDOWS\SYSTEM32\RPCRTREMOTE.DLL
C:\WINDOWS\SYSTEM32\WER.DLL
C:\WINDOWS\SYSTEM32\SENSAPI.DLL
C:\WINDOWS\SYSTEM32\POWRPROF.DLL
C:\WINDOWS\SYSWOW64\SETUPAPI.DLL
C:\WINDOWS\SYSWOW64\CFGMGR32.DLL
C:\WINDOWS\SYSWOW64\DEVOBJ.DLL
